Failed to parse incoming message using_-3oc::_-4-2
Failed to parse incoming message using_-3oc::_-4-2
Failed to parse incoming message using_-3oc::_-4-2
Failed to parse incoming message using_-3oc::_-4-2
Failed to parse incoming message using_-3oc::_-4-2
Failed to parse incoming message using_-3oc::_-4-2
Error in update receiver &amp;quot;com.sulake.bootstrap::CoreCommunicationManagerBootstrap&amp;quot;: TypeError: Error #1009
Connection failed to host and ports
Connection failed to host and ports
Connection failed to host and ports
Connection failed to host and ports
Connection failed to host and ports
Connection failed to host and ports
Connection failed to host and ports
Connection failed to host and ports
Connection failed to host and ports
Connection failed to host and ports
Connection failed to host and ports
Connection failed to host and ports
Connection failed to host and ports
Connection failed to host and ports
Connection failed to host and ports
Connection failed to host and ports
Connection failed to host and ports
Connection failed to host and ports
Connection failed to host and ports
Connection failed to host and ports
Connection failed to host and ports
Connection failed to host and ports
Connection failed to host and ports
Connection failed to host and ports
Connection failed to host and ports
Connection failed to host and ports
Connection failed to host and ports
Connection failed to host and ports
Connection failed to host and ports
Connection failed to host and ports
Connection failed to host and ports
Connection failed to host and ports
Connection failed to host and ports
Connection failed to host and ports
Connection failed to host and ports
Connection failed to host and ports
Connection failed to host and ports
Connection failed to host and ports
Connection failed to host and ports
Connection failed to host and ports
Connection failed to host and ports
Connection failed to host and ports
Connection failed to host and ports
Connection failed to host and ports
Connection failed to host and ports
Connection failed to host and ports
Connection failed to host and ports
Connection failed to host and ports
Connection failed to host and ports
Connection failed to host and ports
Connection failed to host and ports
Connection failed to host and ports
Connection failed to host and ports
Connection failed to host and ports
Connection failed to host and ports
Connection failed to host and ports
Connection failed to host and ports
Connection failed to host and ports
Connection failed to host and ports
Connection failed to host and ports
Connection failed to host and ports
Connection failed to host and ports
Connection failed to host and ports
Connection failed to host and ports
Connection failed to host and ports
Connection failed to host and ports
Connection failed to host and ports
Connection failed to host and ports
Connection failed to host and ports
Connection failed to host and ports
Connection failed to host and ports
Connection failed to host and ports
Connection failed to host and ports
Connection failed to host and ports
Connection failed to host and ports
Connection failed to host and ports
Connection failed to host and ports
Connection failed to host and ports
Connection failed to host and ports
Connection failed to host and ports
Connection failed to host and ports
Connection failed to host and ports
Connection failed to host and ports
Connection failed to host and ports
Connection failed to host and ports
Connection failed to host and ports
Connection failed to host and ports
Connection failed to host and ports
Connection failed to host and ports
Connection failed to host and ports
Connection failed to host and ports
Connection failed to host and ports
Connection failed to host and ports
Connection failed to host and ports
Connection failed to host and ports
Connection failed to host and ports
Connection failed to host and ports
Connection failed to host and ports
Connection failed to host and ports
Connection failed to host and ports
Connection failed to host and ports
Connection failed to host and ports
Connection failed to host and ports
Connection failed to host and ports
Connection failed to host and ports
Connection failed to host and ports
Connection failed to host and ports
Connection failed to host and ports
Connection failed to host and ports
Connection failed to host and ports
Connection failed to host and ports
Connection failed to host and ports
Connection failed to host and ports
Connection failed to host and ports
Connection failed to host and ports
Connection failed to host and ports
Connection failed to host and ports
Connection failed to host and ports
Connection failed to host and ports
Connection failed to host and ports
Connection failed to host and ports
Connection failed to host and ports
Connection failed to host and ports
Connection failed to host and ports
Connection failed to host and ports
Connection failed to host and ports
